<?xml version="1.0" encoding="utf-8"?>
<svg id="master-artboard" viewBox="0 0 353.60015869140625 560.800048828125" version="1.1" xmlns="http://www.w3.org/2000/svg" x="0px" y="0px" style="enable-background:new 0 0 1400 980;" width="353.60015869140625px" height="560.800048828125px"><rect id="ee-background" x="0" y="0" width="353.60015869140625" height="560.800048828125" style="fill: white; fill-opacity: 0; pointer-events: none;"/>








<path d="M 987.2000122070312 459 L 985.5 459.5 L 993.5999755859375 474.20001220703125 L 954.2000122070312 509.79998779296875 L 943.2000122070312 506.79998779296875 L 948.9000244140625 517.5 L 850.9000244140625 639 L 840.2000122070312 655.5999755859375 L 793.5999755859375 710.2999877929688 L 744.2999877929688 865.5999755859375 L 793.5999755859375 957.2999877929688 L 871.5 957.2999877929688 L 1030.9000244140625 957.2999877929688 L 1030.9000244140625 527.0999755859375 L 1030.9000244140625 507.1000061035156 L 1016 479.3999938964844 Z" class="st2" style="fill: rgb(46, 125, 50);" transform="matrix(1, 0, 0, 1, -689.0665283203125, -419.19993591308594)"/>
<path d="M 871.5 427.3999938964844 L 702.2000122070312 427.3999938964844 L 702.2000122070312 957.2999877929688 L 751.0999755859375 957.2999877929688 L 793.5999755859375 957.2999877929688 L 744.2999877929688 865.5999755859375 L 793.5999755859375 710.2999877929688 L 840.2000122070312 655.5999755859375 L 850.9000244140625 639 L 948.9000244140625 517.5 L 943.2000122070312 506.79998779296875 L 954.2000122070312 509.79998779296875 L 993.5999755859375 474.20001220703125 L 985.5 459.5 L 987.2000122070312 459 L 1016 479.3999938964844 L 1030.9000244140625 507.1000061035156 L 1030.9000244140625 427.3999938964844 Z" class="st1" style="fill: rgb(67, 160, 71);" transform="matrix(1, 0, 0, 1, -689.0665283203125, -419.19993591308594)"/>





















































































<path class="st8" d="M843.2,819.2L843.2,819.2l-49.6-108.9v104.3h8.3v19.8h19.8v16.5h-19.8v19.8h-8.3v25.5&#10;&#9;&#9;c30.1,0,54.5-24.4,54.5-54.5C848.1,833.7,846.3,826,843.2,819.2z" style="fill: rgb(224, 61, 61);" transform="matrix(1, 0, 0, 1, -689.0665283203125, -419.19993591308594)"/>
<path class="st9" d="M785.3,870.7v-19.8h-19.8v-16.5h19.8v-19.8h8.3V710.3L744,819.2l0,0c-3.1,6.9-4.9,14.5-4.9,22.6&#10;&#9;&#9;c0,30.1,24.4,54.5,54.5,54.5v-25.5H785.3z" style="fill: rgb(255, 69, 69);" transform="matrix(1, 0, 0, 1, -689.0665283203125, -419.19993591308594)"/>
<path d="M 801.7999877929688 870.7000122070312 L 801.7999877929688 850.9000244140625 L 821.5999755859375 850.9000244140625 L 821.5999755859375 834.4000244140625 L 801.7999877929688 834.4000244140625 L 801.7999877929688 814.5999755859375 L 793.5999755859375 814.5999755859375 L 793.5999755859375 870.7000122070312 Z" class="st5" style="fill: rgb(230, 230, 230);" transform="matrix(1, 0, 0, 1, -689.0665283203125, -419.19993591308594)"/>
<path d="M 785.2999877929688 834.4000244140625 L 765.5 834.4000244140625 L 765.5 850.9000244140625 L 785.2999877929688 850.9000244140625 L 785.2999877929688 870.7000122070312 L 793.5999755859375 870.7000122070312 L 793.5999755859375 814.5999755859375 L 785.2999877929688 814.5999755859375 Z" class="st0" style="fill: rgb(255, 255, 255);" transform="matrix(1, 0, 0, 1, -689.0665283203125, -419.19993591308594)"/>
<g transform="matrix(1, 0, 0, 1, -689.0665283203125, -419.19993591308594)">
		
			<path d="M 861.5 583.099976 H 887.6 V 648.799973 H 861.5 V 583.099976 Z" transform="matrix(-0.7585 -0.6517 0.6517 -0.7585 1136.505 1653.197)" class="st6" style="fill: rgb(255, 69, 69);"/>
	</g><path d="M 879.5 542.099976 H 974.199997 V 568.199976 H 879.5 V 542.099976 Z" transform="matrix(-0.6516000032424927, 0.7586000561714172, -0.7586000561714172, -0.6516000032424927, 1262.8536376953125, -205.4358367919922)" class="st0" style="fill: rgb(255, 255, 255);"/><path d="M 939.599976 516.700012 H 977.799976 V 519.600012 H 939.599976 V 516.700012 Z" transform="matrix(-0.7586000561714172, -0.6515001654624939, 0.6515001654624939, -0.7586000561714172, 659.332763671875, 1116.568344116211)" class="st0" style="fill: rgb(255, 255, 255);"/><path d="M 988.2999877929688 455.6000061035156 L 1016 479.3999938964844 L 1013.2000122070312 482.70001220703125 L 985.5 458.8999938964844 Z" class="st0" style="fill: rgb(255, 255, 255);" transform="matrix(1, 0, 0, 1, -689.0665283203125, -419.19993591308594)"/><path d="M 992.5999755859375 465 L 1006 476.5 L 967.5999755859375 521.2999877929688 L 954.2000122070312 509.79998779296875 Z" class="st0" style="fill: rgb(255, 255, 255);" transform="matrix(1, 0, 0, 1, -689.0665283203125, -419.19993591308594)"/><path d="M 842.900024 640.700012 H 849.200025 V 657.900013 H 842.900024 V 640.700012 Z" transform="matrix(-0.7586000561714172, -0.6516000032424927, 0.6516000032424927, -0.7586000561714172, 375.653564453125, 1273.8538665771484)" class="st11" style="fill: rgb(247, 151, 91);"/><path d="M 793.5999755859375 710.2999877929688 L 840.2000122070312 659 L 837.5999755859375 656.7000122070312 Z" class="st0" style="fill: rgb(255, 255, 255);" transform="matrix(1, 0, 0, 1, -689.0665283203125, -419.19993591308594)"/><path d="M 916.599976 547.700012 H 927.199976 V 550.500012 H 916.599976 V 547.700012 Z" transform="matrix(0.7586000561714172, 0.6515001654624939, -0.6515001654624939, 0.7586000561714172, -108.839111328125, -887.3145904541016)" class="st13" style="fill: rgb(35, 31, 32); opacity: 0.5;"/><path d="M 913.2000122070312 567.2999877929688 L 905.0999755859375 560.4000244140625 L 906.9000244140625 558.2999877929688 L 915 565.2000122070312 Z" class="st13" style="fill: rgb(35, 31, 32); opacity: 0.5;" transform="matrix(1, 0, 0, 1, -689.0665283203125, -419.19993591308594)"/><path d="M 892.900024 575.200012 H 903.500025 V 578.000012 H 892.900024 V 575.200012 Z" transform="matrix(0.7586000561714172, 0.6516000032424927, -0.6516000032424927, 0.7586000561714172, -96.55120849609375, -865.2749786376953)" class="st13" style="fill: rgb(35, 31, 32); opacity: 0.5;"/><path d="M 881.099976 589 H 891.799975 V 591.8 H 881.099976 V 589 Z" transform="matrix(0.7585001587867737, 0.6516000032424927, -0.6516000032424927, 0.7585001587867737, -90.34112548828125, -854.2705230712891)" class="st13" style="fill: rgb(35, 31, 32); opacity: 0.5;"/><path d="M 869.299988 602.700012 H 879.999988 V 605.500012 H 869.299988 V 602.700012 Z" transform="matrix(0.758400022983551, 0.6518001556396484, -0.6518001556396484, 0.758400022983551, -84.0157470703125, -843.2943267822266)" class="st13" style="fill: rgb(35, 31, 32); opacity: 0.5;"/>










</svg>