<?xml version="1.0" encoding="UTF-8" standalone="no"?>
<svg xmlns:dc="http://purl.org/dc/elements/1.1/" xmlns:cc="http://creativecommons.org/ns#"
  xmlns:rdf="http://www.w3.org/1999/02/22-rdf-syntax-ns#" xmlns:svg="http://www.w3.org/2000/svg"
  xmlns="http://www.w3.org/2000/svg" viewBox="0 0 1266.6667 1066.6667" height="1266.6667" width="1066.6667"
   id="svg2" version="1.1">
 
  <g transform="matrix(1.3333333,0,0,-1.3333333,0,1306.6667)" id="g10">
        <g id="g16">
      <g clip-path="url(#clipPath22)" id="g18">

        <g transform="translate(193.832,558.229)" id="g162">
          <path id="path164" style="fill:#e89277;fill-opacity:1;fill-rule:nonzero;stroke:none"
            d="m 0,0 c -10.05,-4.908 -22.182,-0.741 -27.085,9.309 -4.914,10.055 -0.742,22.181 9.307,27.093 L 102.48,94.419 c 10.054,4.911 22.182,0.741 27.091,-9.309 4.909,-10.053 10.355,-32.991 0.298,-37.9 z" />
        </g>
        <g transform="translate(255.7417,573.7803)" id="g166">
          <path id="path168" style="fill:#388e3c;fill-opacity:1;fill-rule:nonzero;stroke:none"
            d="m 0,0 80.255,37.387 c 9.898,4.611 14.185,16.372 9.574,26.27 l -7.674,16.472 c -4.612,9.899 -16.372,14.185 -26.27,9.574 L -24.371,52.316 Z" />
        </g>
        <g transform="translate(495.6328,65.8418)" id="g170">
          <path id="path172" style="fill:#bbbbbb;fill-opacity:1;fill-rule:nonzero;stroke:none"
            d="m 0,0 c 0,-3.821 -3.098,-6.92 -6.92,-6.92 h -230.33 c -3.822,0 -6.92,3.099 -6.92,6.92 0,3.822 3.098,6.92 6.92,6.92 H -6.92 C -3.098,6.92 0,3.822 0,0" />
        </g>
        <g transform="translate(312.9814,76.9268)" id="g174">
          <path id="path176" style="fill:#e89277;fill-opacity:1;fill-rule:nonzero;stroke:none"
            d="M 0,0 C 4.782,4.402 14.658,7.062 22.566,7.691 L 6.925,214.771 H 48.269 V -11.085 H -4.685 c 0,0 0.277,7.029 4.685,11.085" />
        </g>
        <g transform="translate(367.6152,100.7109)" id="g178">
          <path id="path180" style="fill:#388e3c;fill-opacity:1;fill-rule:nonzero;stroke:none"
            d="M 0,0 V 315.32 H -65.684 L -41.865,0 Z" />
        </g>
        <g transform="translate(435.5488,76.9268)" id="g182">
          <path id="path184" style="fill:#e89277;fill-opacity:1;fill-rule:nonzero;stroke:none"
            d="m 0,0 c -4.782,4.402 -14.658,7.062 -22.566,7.691 l 15.642,207.08 H -48.269 V -11.085 H 4.686 c 0,0 -0.278,7.029 -4.686,11.085" />
        </g>
        <g transform="translate(380.916,100.7109)" id="g186">
          <path id="path188" style="fill:#388e3c;fill-opacity:1;fill-rule:nonzero;stroke:none"
            d="M 0,0 V 315.32 H 65.684 L 41.865,0 Z" />
        </g>
        <path id="path190" style="fill:#388e3c;fill-opacity:1;fill-rule:nonzero;stroke:none"
          d="m 414.859,367.123 h -73.942 v 42.101 h 73.942 z" />
        <g transform="translate(413.4805,91.2148)" id="g192">
          <path id="path194" style="fill:#43A047;fill-opacity:1;fill-rule:nonzero;stroke:none"
            d="m 0,0 -0.498,-6.597 c 7.908,-0.63 17.784,-3.289 22.566,-7.691 4.409,-4.056 4.686,-11.085 4.686,-11.085 H -26.2 L -26.2,0 Z" />
        </g>
        <g transform="translate(335.0498,91.2148)" id="g196">
          <path id="path198" style="fill:#43A047;fill-opacity:1;fill-rule:nonzero;stroke:none"
            d="m 0,0 0.498,-6.597 c -7.908,-0.63 -17.784,-3.289 -22.566,-7.691 -4.409,-4.056 -4.685,-11.085 -4.685,-11.085 H 26.2 L 26.2,0 Z" />
        </g>
        <path id="path200" style="fill:#b52424;fill-opacity:1;fill-rule:nonzero;stroke:none"
          d="M 392.902,664.795 H 355.71 v 4.57 h 37.192 z" />
        <g transform="translate(392.4761,661.1089)" id="g202">
          <path id="path204" style="fill:#e89277;fill-opacity:1;fill-rule:nonzero;stroke:none"
            d="m 0,0 h -36.421 l 2.101,71.703 h 32.218 z" />
        </g>
        <g transform="translate(356.6816,684.5386)" id="g206">
          <path id="path208" style="fill:#d3806a;fill-opacity:1;fill-rule:nonzero;stroke:none"
            d="m 0,0 c 5.557,-1.994 11.432,-2.891 17.534,-2.891 6.111,0 12.024,0.817 17.633,2.841 L 33.693,47.581 H 1.474 Z" />
        </g>
        <g transform="translate(357.4541,752.0356)" id="g210">
          <path id="path212" style="fill:#282828;fill-opacity:1;fill-rule:nonzero;stroke:none"
            d="m 0,0 c 0,-20.695 -16.776,-37.471 -37.471,-37.471 -20.695,0 -37.471,16.776 -37.471,37.471 0,20.695 16.776,37.471 37.471,37.471 C -16.776,37.471 0,20.695 0,0" />
        </g>
        <g transform="translate(321.9321,763.4297)" id="g214">
          <path id="path216" style="fill:#e89277;fill-opacity:1;fill-rule:nonzero;stroke:none"
            d="m 0,0 c 5.77,-9.514 5.397,-20.291 -0.831,-24.067 -6.231,-3.777 -15.957,0.874 -21.727,10.387 -5.77,9.516 -5.397,20.291 0.833,24.068 C -15.496,14.166 -5.769,9.515 0,0" />
        </g>
        <g transform="translate(426.4985,763.4297)" id="g218">
          <path id="path220" style="fill:#e89277;fill-opacity:1;fill-rule:nonzero;stroke:none"
            d="m 0,0 c -5.769,-9.514 -5.396,-20.291 0.832,-24.067 6.23,-3.777 15.957,0.874 21.726,10.387 5.77,9.516 5.398,20.291 -0.832,24.068 C 15.496,14.166 5.769,9.515 0,0" />
        </g>
        <g transform="translate(439.3604,780.4624)" id="g222">
          <path id="path224" style="fill:#f9a78a;fill-opacity:1;fill-rule:nonzero;stroke:none"
            d="m 0,0 c 0,-48.96 -29.166,-86.203 -65.145,-86.203 -36.628,0 -65.145,38.347 -65.145,86.203 0,48.962 29.166,71.492 65.145,71.492 C -29.166,71.492 0,48.962 0,0" />
        </g>
        <g transform="translate(383.0269,714.5645)" id="g226">
          <path id="path228" style="fill:#e89277;fill-opacity:1;fill-rule:nonzero;stroke:none"
            d="m 0,0 c -0.73,3.212 -4.396,4.263 -8.811,4.263 -4.417,0 -8.082,-1.051 -8.812,-4.263 z" />
        </g>
        <g transform="translate(374.2651,863.9248)" id="g230">
          <path id="path232" style="fill:#282828;fill-opacity:1;fill-rule:nonzero;stroke:none"
            d="m 0,0 c 9.208,0 -9.531,-15.874 -21.322,-21.516 0,-24.832 -0.93,-16.802 -16.108,-26.115 -15.409,-9.455 -27.611,-24.538 -27.611,-41.868 -3.019,0.686 -6.093,0.892 -9.017,-0.608 0,17.672 9.03,43.878 17.498,55.299 C -41.673,-14.729 -23.291,0 0,0" />
        </g>
        <g transform="translate(372.1177,858.7803)" id="g234">
          <path id="path236" style="fill:#282828;fill-opacity:1;fill-rule:nonzero;stroke:none"
            d="m 0,0 c -9.207,0 -31.373,-9.899 -43.623,-21.516 0,-24.832 10.331,-31.66 25.509,-40.973 15.408,-9.455 65.996,-35.227 82.456,-35.227 3.095,0 6.264,3.001 9.713,7.609 0,17.672 -9.026,43.878 -17.495,55.299 C 41.673,-14.729 23.291,0 0,0" />
        </g>
        <g transform="translate(551.1938,541.353)" id="g238">
          <path id="path240" style="fill:#e89277;fill-opacity:1;fill-rule:nonzero;stroke:none"
            d="m 0,0 c 8.152,-7.657 8.557,-20.478 0.899,-28.626 -7.66,-8.16 -20.478,-8.558 -28.633,-0.903 l -96.887,91.876 c -8.155,7.659 -8.556,20.478 -0.9,28.631 7.66,8.154 27.177,21.379 35.333,13.716 z" />
        </g>
        <g transform="translate(514.7021,593.7271)" id="g242">
          <path id="path244" style="fill:#388e3c;fill-opacity:1;fill-rule:nonzero;stroke:none"
            d="m 0,0 -63.412,61.787 c -7.821,7.62 -20.338,7.457 -27.959,-0.363 l -12.681,-13.015 c -7.621,-7.822 -7.458,-20.338 0.363,-27.958 l 63.412,-61.787 z" />
        </g>
        <g transform="translate(452.9287,619.7544)" id="g246">
          <path id="path248" style="fill:#43A047;fill-opacity:1;fill-rule:nonzero;stroke:none"
            d="m 0,0 c -4.084,20.344 -4.975,45.144 -22.529,45.144 h -41.344 -3.615 -67.309 c -17.555,0 -18.445,-24.8 -22.529,-45.144 -3.939,-19.622 -11.378,-18.453 -11.378,-37.07 0,-12.005 3.215,-18.662 11.378,-25.076 v -148.385 h 89.838 3.615 H 0 v 148.385 c 8.163,6.414 11.378,13.071 11.378,25.076 C 11.378,-18.453 3.938,-19.622 0,0" />
        </g>
        <g transform="translate(374.2651,673.833)" id="g250">
          <path id="path252" style="fill:#e89277;fill-opacity:1;fill-rule:nonzero;stroke:none"
            d="m 0,0 c -6.014,-0.003 -14.219,-8.957 -18.015,-8.959 -3.835,-0.003 -3.231,-0.006 -3.23,-0.009 7.502,-18.974 13.956,-32.712 21.245,-48.848 7.289,16.136 13.742,29.874 21.243,48.848 0.002,0.003 0.794,0.006 -3.258,0.009 C 14.219,-8.957 5.824,-0.003 0,0" />
        </g>
        <g id="g254">
          <g id="g256" />
          <g id="g268">
            <g style="opacity:0.19999701" id="g266" clip-path="url(#clipPath260)">
              <g id="g264" transform="translate(310.1294,557.6694)">
                <path id="path262" style="fill:#404041;fill-opacity:1;fill-rule:nonzero;stroke:none"
                  d="m 0,0 c 2.798,-4.537 7.694,-7.524 13.28,-7.524 h 101.712 c 5.587,0 10.482,2.987 13.279,7.524 z" />
              </g>
            </g>
          </g>
        </g>
        <g transform="translate(410.1982,786.0464)" id="g270">
          <path id="path272" style="fill:#444444;fill-opacity:1;fill-rule:nonzero;stroke:none"
            d="m 0,0 c -14.833,0.005 -30.854,11.965 -37.366,21.542 -0.481,0.703 -0.297,1.629 0.348,2.08 0.646,0.451 1.508,0.287 1.984,-0.379 C -28.573,14.101 -8.886,2.129 0,0" />
        </g>
        <g transform="translate(437.7778,862.4404)" id="g274">
          <path id="path276" style="fill:#43A047;fill-opacity:1;fill-rule:nonzero;stroke:none"
            d="m 0,0 c -18.961,25.79 -58.817,25.998 -64.598,25.888 -5.78,0.11 -45.637,-0.098 -64.599,-25.888 5.169,-22.707 15.375,-38.626 15.375,-38.626 0,0 30.618,10.71 49.224,10.977 18.607,-0.267 49.224,-10.977 49.224,-10.977 0,0 10.207,15.919 15.374,38.626" />
        </g>
        <g transform="translate(395.229,831.5962)" id="g278">
          <path id="path280" style="fill:#388e3c;fill-opacity:1;fill-rule:nonzero;stroke:none"
            d="m 0,0 c 14.194,-3.242 27.175,-7.782 27.175,-7.782 0,0 10.206,15.92 15.374,38.626 -18.961,25.79 -58.817,25.998 -64.598,25.888 -2.475,0.047 -11.205,0.029 -21.861,-2.024 z" />
        </g>
        <g transform="translate(380.311,751.5757)" id="g282">
          <path id="path284" style="fill:#e89277;fill-opacity:1;fill-rule:nonzero;stroke:none"
            d="m 0,0 c 0,-3.367 -2.729,-6.096 -6.096,-6.096 -3.366,0 -6.095,2.729 -6.095,6.096 v 16.146 c 0,3.367 2.729,6.096 6.095,6.096 3.367,0 6.096,-2.729 6.096,-6.096 z" />
        </g>
        <g transform="translate(383.0269,749.4341)" id="g286">
          <path id="path288" style="fill:#ffb9a4;fill-opacity:1;fill-rule:nonzero;stroke:none"
            d="m 0,0 c 0,2.184 -1.771,3.954 -3.954,3.954 h -9.715 c -2.184,0 -3.954,-1.77 -3.954,-3.954 0,-2.184 1.77,-3.954 3.954,-3.954 h 9.715 C -1.771,-3.954 0,-2.184 0,0" />
        </g>
        <g transform="translate(352.8994,740.7197)" id="g290">
          <path id="path292" style="fill:#e23737;fill-opacity:1;fill-rule:nonzero;stroke:none"
            d="m 0,0 c 0.373,-9.552 9.77,-17.201 21.315,-17.201 11.547,0 20.944,7.649 21.317,17.201 z" />
        </g>
        <g transform="translate(362.1768,732.1191)" id="g294">
          <path id="path296" style="fill:#cc2b2b;fill-opacity:1;fill-rule:nonzero;stroke:none"
            d="M 0,0 C 0,-2.376 0.697,-4.585 1.886,-6.452 4.906,-7.818 8.361,-8.6 12.038,-8.6 c 3.678,0 7.133,0.782 10.153,2.148 1.189,1.867 1.886,4.076 1.886,6.452 0,3.372 -1.389,6.415 -3.622,8.601 H 3.622 C 1.389,6.415 0,3.372 0,0" />
        </g>
        <g transform="translate(387.8555,736.0239)" id="g298">
          <path id="path300" style="fill:#ffffff;fill-opacity:1;fill-rule:nonzero;stroke:none"
            d="m 0,0 c 2.425,0 4.393,1.967 4.393,4.393 0,0.104 -0.023,0.2 -0.031,0.303 H -31.642 C -31.649,4.593 -31.673,4.497 -31.673,4.393 -31.673,1.967 -29.705,0 -27.28,0 Z" />
        </g>
        <g transform="translate(388.2109,727.9097)" id="g302">
          <path id="path304" style="fill:#ef5959;fill-opacity:1;fill-rule:nonzero;stroke:none"
            d="m 0,0 c -3.164,3.101 -8.246,5.122 -13.996,5.122 -5.749,0 -10.832,-2.021 -13.995,-5.122 3.746,-2.726 8.632,-4.391 13.995,-4.391 5.365,0 10.249,1.665 13.996,4.391" />
        </g>
        <g transform="translate(360.8677,764.98)" id="g306">
          <path id="path308" style="fill:#282828;fill-opacity:1;fill-rule:nonzero;stroke:none"
            d="m 0,0 c -0.524,-0.8 -1.645,-0.995 -2.539,-0.524 -6.819,3.6 -14.99,3.6 -21.808,0 -0.894,-0.471 -2.015,-0.276 -2.54,0.524 -0.524,0.797 -0.128,1.98 0.925,2.535 7.828,4.134 17.209,4.134 25.037,0 C 0.128,1.98 0.523,0.797 0,0" />
        </g>
        <g transform="translate(414.4497,764.98)" id="g310">
          <path id="path312" style="fill:#282828;fill-opacity:1;fill-rule:nonzero;stroke:none"
            d="m 0,0 c -0.523,-0.8 -1.645,-0.995 -2.539,-0.524 -6.818,3.6 -14.989,3.6 -21.808,0 -0.894,-0.471 -2.015,-0.276 -2.539,0.524 -0.524,0.797 -0.129,1.98 0.925,2.535 7.828,4.134 17.209,4.134 25.037,0 C 0.129,1.98 0.524,0.797 0,0" />
        </g>
        <g transform="translate(385.2896,864.7041)" id="g314">
          <path id="path316" style="fill:#eeeeee;fill-opacity:1;fill-rule:nonzero;stroke:none"
            d="M 0,0 H -6.449 V 6.448 H -17.771 V 0 h -6.449 v -11.323 h 6.449 v -6.448 h 11.322 v 6.448 H 0 Z" />
        </g>
        <g transform="translate(361.1421,508.187)" id="g318">
          <path id="path320" style="fill:#c7c8ca;fill-opacity:1;fill-rule:nonzero;stroke:none"
            d="m 0,0 v 33.016 c 0,2.432 1.989,4.422 4.422,4.422 h 17.464 c 2.432,0 4.423,-1.99 4.423,-4.422 L 26.309,0 c 0,-2.432 -1.991,-4.422 -4.423,-4.422 H 4.422 C 1.989,-4.422 0,-2.432 0,0" />
        </g>
        <g transform="translate(381.0518,547.1377)" id="g322">
          <path id="path324" style="fill:#c7c8ca;fill-opacity:1;fill-rule:nonzero;stroke:none"
            d="m 0,0 h -13.589 c -2.214,0 -5.399,-2.167 -6.161,-4.362 l 3.729,2.755 c 0,-0.876 0.718,-1.637 1.594,-1.637 h -0.899 0.955 15.207 c 0.876,0 1.594,0.776 1.594,1.651 L 6.16,-4.392 C 5.397,-2.195 2.213,0 0,0" />
        </g>
        <g transform="translate(367.9229,543.3428)" id="g326">
          <path id="path328" style="fill:#dcddde;fill-opacity:1;fill-rule:nonzero;stroke:none"
            d="m 0,0 c 0,-0.521 -0.423,-0.943 -0.944,-0.943 -0.521,0 -0.943,0.422 -0.943,0.943 0,0.521 0.422,0.943 0.943,0.943 C -0.423,0.943 0,0.521 0,0" />
        </g>
        <g transform="translate(382.4775,543.3428)" id="g330"></g>
        <g transform="translate(377.1084,542.5977)" id="g338"></g>
        <g transform="translate(392.8613,669.3657)" id="g352">
          <path id="path354" style="fill:#cc2b2b;fill-opacity:1;fill-rule:nonzero;stroke:none"
            d="m 0,0 -20.963,-116.332 h 4.732 L 3.881,-3.331 Z" />
        </g>
        <g transform="translate(355.6689,669.3657)" id="g356">
          <path id="path358" style="fill:#e23737;fill-opacity:1;fill-rule:nonzero;stroke:none"
            d="M 0,0 20.964,-116.332 H 16.232 L -3.88,-3.331 Z" />
        </g>
        <path id="path360" style="fill:#ef5959;fill-opacity:1;fill-rule:nonzero;stroke:none"
          d="m 376.673,543.861 h -4.735 v 9.195 h 4.735 z" />
        <path id="path362" style="fill:#e23737;fill-opacity:1;fill-rule:nonzero;stroke:none"
          d="m 377.079,547.769 h -5.653 v 1.379 h 5.653 z" />
        <g transform="translate(255.3013,716.0645)" id="g364">
          <path id="path366" style="fill:#f9a78a;fill-opacity:1;fill-rule:nonzero;stroke:none"
            d="m 0,0 c 2.851,0.716 5.739,-1.021 6.453,-3.874 0.712,-2.85 -1.019,-5.738 -3.874,-6.451 l -13.47,-3.367 c -2.852,-0.715 -5.745,1.019 -6.455,3.873 -0.713,2.851 1.02,5.739 3.873,6.454 z" />
        </g>
        <g transform="translate(225.4253,732.9707)" id="g368">
          <path id="path370" style="fill:#f9a78a;fill-opacity:1;fill-rule:nonzero;stroke:none"
            d="m 0,0 c -0.558,-2.885 -3.35,-4.772 -6.232,-4.217 -2.889,0.556 -4.778,3.345 -4.22,6.234 l 4.916,24.756 c 0.552,2.888 3.345,4.777 6.231,4.219 2.884,-0.558 4.775,-3.348 4.219,-6.234 z" />
        </g>
        <g transform="translate(238.8823,736.0713)" id="g372">
          <path id="path374" style="fill:#f9a78a;fill-opacity:1;fill-rule:nonzero;stroke:none"
            d="m 0,0 c -0.717,-2.851 -3.609,-4.578 -6.462,-3.861 -2.849,0.715 -4.58,3.609 -3.86,6.462 l 6.299,24.442 c 0.715,2.85 3.609,4.58 6.459,3.859 2.85,-0.715 4.578,-3.608 3.86,-6.459 z" />
        </g>
        <g transform="translate(250.6743,757.1143)" id="g376">
          <path id="path378" style="fill:#f9a78a;fill-opacity:1;fill-rule:nonzero;stroke:none"
            d="m 0,0 c 1.458,2.551 4.71,3.436 7.262,1.972 2.55,-1.461 3.433,-4.711 1.972,-7.261 L -3.428,-27.121 c -1.463,-2.555 -4.714,-3.435 -7.266,-1.974 -2.548,1.458 -3.434,4.712 -1.973,7.264 L 0,0" />
        </g>
        <g transform="translate(248.7422,716.6143)" id="g380">
          <path id="path382" style="fill:#f9a78a;fill-opacity:1;fill-rule:nonzero;stroke:none"
            d="m 0,0 c -2.141,-2.013 -5.507,-1.916 -7.524,0.226 -2.011,2.14 -1.915,5.509 0.228,7.524 l 18.473,17.199 c 2.137,2.018 5.506,1.915 7.522,-0.227 2.013,-2.139 1.91,-5.506 -0.229,-7.523 z" />
        </g>
        <g transform="translate(212.7451,732.5161)" id="g384">
          <path id="path386" style="fill:#f9a78a;fill-opacity:1;fill-rule:nonzero;stroke:none"
            d="M 0,0 C 3.41,10.653 14.813,16.529 25.461,13.117 36.121,9.708 41.99,-1.694 38.584,-12.348 L -9.359,-162.243 c -3.411,-10.654 -14.812,-16.527 -25.464,-13.119 -10.656,3.411 -16.53,14.813 -13.116,25.469 z" />
        </g>
        <g transform="translate(452.8628,475.0156)" id="g388">
          <path id="path390" style="fill:#444444;fill-opacity:1;fill-rule:nonzero;stroke:none"
            d="m 0,0 c -0.937,-4.421 -5.278,-7.245 -9.699,-6.31 l -88.566,18.756 c -4.419,0.937 -7.243,5.279 -6.307,9.7 l 26.36,124.475 c 0.937,4.421 5.278,7.244 9.698,6.309 l 88.566,-18.756 c 4.42,-0.937 7.244,-5.278 6.308,-9.698 z" />
        </g>
        <g transform="translate(472.9146,609.1899)" id="g392">
          <path id="path394" style="fill:#565656;fill-opacity:1;fill-rule:nonzero;stroke:none"
            d="m 0,0 -88.565,18.756 c -4.42,0.935 -8.762,-1.888 -9.699,-6.309 l -0.869,-4.11 c 0.935,4.42 5.277,7.244 9.697,6.308 L -0.87,-4.11 c 4.42,-0.936 7.245,-5.279 6.308,-9.698 l 0.871,4.11 C 7.244,-5.278 4.42,-0.937 0,0" />
        </g>
        <g transform="translate(431.6323,632.7368)" id="g396">
          <path id="path398" style="fill:#282828;fill-opacity:1;fill-rule:nonzero;stroke:none"
            d="M 0,0 C 2.413,-0.512 3.954,-2.881 3.443,-5.293 3.373,-5.625 3.266,-5.937 3.13,-6.231 2.98,-6.559 2.791,-6.86 2.574,-7.136 2.559,-7.156 2.544,-7.176 2.528,-7.195 2.47,-7.268 2.405,-7.337 2.342,-7.406 2.315,-7.434 2.288,-7.464 2.26,-7.493 2.198,-7.555 2.135,-7.616 2.07,-7.673 2.036,-7.705 2.001,-7.735 1.966,-7.765 1.903,-7.819 1.838,-7.872 1.772,-7.922 1.732,-7.952 1.691,-7.981 1.65,-8.01 1.585,-8.056 1.52,-8.103 1.451,-8.145 1.405,-8.175 1.357,-8.2 1.311,-8.227 1.244,-8.266 1.178,-8.306 1.109,-8.341 1.021,-8.386 0.932,-8.427 0.84,-8.466 0.764,-8.5 0.685,-8.53 0.606,-8.558 0.534,-8.584 0.461,-8.612 0.388,-8.635 0.331,-8.653 0.272,-8.666 0.216,-8.681 0.142,-8.702 0.066,-8.72 -0.009,-8.736 c -0.057,-0.013 -0.116,-0.022 -0.174,-0.032 -0.078,-0.014 -0.156,-0.024 -0.235,-0.034 -0.058,-0.007 -0.115,-0.012 -0.173,-0.016 -0.082,-0.006 -0.166,-0.01 -0.249,-0.011 -0.056,-0.002 -0.111,-0.003 -0.166,-0.002 -0.093,10e-4 -0.187,0.008 -0.281,0.016 -0.047,0.005 -0.093,0.005 -0.139,0.011 -0.141,0.016 -0.282,0.038 -0.424,0.068 -0.141,0.029 -0.279,0.067 -0.414,0.109 -0.046,0.015 -0.089,0.033 -0.132,0.047 -0.089,0.031 -0.178,0.063 -0.263,0.099 -0.052,0.022 -0.101,0.045 -0.151,0.068 -0.076,0.036 -0.15,0.072 -0.224,0.112 -0.05,0.027 -0.101,0.055 -0.151,0.085 -0.068,0.041 -0.135,0.083 -0.202,0.126 -0.048,0.032 -0.098,0.066 -0.144,0.1 -0.065,0.046 -0.124,0.093 -0.184,0.141 -0.046,0.037 -0.095,0.074 -0.139,0.112 -0.058,0.051 -0.113,0.106 -0.169,0.159 -0.058,0.057 -0.115,0.112 -0.169,0.171 -0.07,0.075 -0.138,0.151 -0.203,0.231 -0.048,0.06 -0.093,0.123 -0.137,0.184 -0.032,0.045 -0.065,0.088 -0.095,0.134 -0.046,0.066 -0.086,0.136 -0.127,0.204 -0.026,0.044 -0.052,0.086 -0.077,0.131 -0.04,0.072 -0.078,0.147 -0.114,0.221 -0.02,0.042 -0.04,0.085 -0.057,0.127 -0.037,0.079 -0.07,0.16 -0.101,0.242 -0.013,0.037 -0.026,0.075 -0.039,0.112 -0.03,0.089 -0.06,0.177 -0.085,0.268 -0.006,0.024 -0.012,0.05 -0.018,0.074 -0.087,0.339 -0.137,0.69 -0.142,1.049 -0.004,0.326 0.024,0.655 0.094,0.986 C -4.782,-1.031 -2.412,0.511 0,0 m 30.474,-31.094 2.928,13.829 c 0.519,2.449 -1.046,4.854 -3.495,5.372 l -22.07,4.674 c 0.1,0.306 0.185,0.62 0.254,0.941 C 9.145,-1.299 5.963,3.592 0.984,4.646 -3.995,5.7 -8.885,2.52 -9.939,-2.459 c -0.068,-0.322 -0.119,-0.643 -0.151,-0.963 l -22.071,4.673 c -2.448,0.519 -4.853,-1.045 -5.372,-3.494 l -2.928,-13.83 z" />
        </g>
        <g transform="translate(461.5396,620.8442)" id="g400">
          <path id="path402" style="fill:#282828;fill-opacity:1;fill-rule:nonzero;stroke:none"
            d="m 0,0 -22.07,4.674 c 0.099,0.305 0.185,0.619 0.254,0.941 1.053,4.978 -2.128,9.869 -7.107,10.924 -4.979,1.054 -9.869,-2.126 -10.924,-7.106 -0.068,-0.321 -0.118,-0.642 -0.151,-0.963 l -22.07,4.674 c -2.448,0.519 -4.853,-1.046 -5.372,-3.495 l -0.405,-1.912 c 0.519,2.449 2.924,4.013 5.372,3.494 l 22.07,-4.673 c 0.033,0.319 0.083,0.64 0.152,0.962 1.053,4.979 5.944,8.161 10.923,7.106 4.979,-1.054 8.161,-5.945 7.106,-10.924 -0.068,-0.321 -0.154,-0.635 -0.253,-0.941 l 22.07,-4.673 C 2.044,-2.431 3.609,-4.837 3.09,-7.285 l 0.405,1.913 C 4.014,-2.924 2.449,-0.519 0,0" />
        </g>
        <g transform="translate(431.2271,630.8237)" id="g404">
          <path id="path406" style="fill:#2c2a2b;fill-opacity:1;fill-rule:nonzero;stroke:none"
            d="M 0,0 C 2.084,-0.441 3.514,-2.269 3.538,-4.313 3.671,-4.02 3.779,-3.709 3.849,-3.38 4.359,-0.968 2.818,1.401 0.405,1.913 -2.007,2.424 -4.377,0.882 -4.888,-1.531 -4.957,-1.859 -4.984,-2.186 -4.981,-2.509 -4.131,-0.65 -2.082,0.441 0,0" />
        </g>
        <g transform="translate(390.7661,614.752)" id="g408">
          <path id="path410" style="fill:#2c2a2b;fill-opacity:1;fill-rule:nonzero;stroke:none"
            d="m 0,0 70.934,-15.023 0.862,4.069 L 0.861,4.067 Z" />
        </g>
        <g transform="translate(389.8633,575.895)" id="g412">
          <path id="path414" style="fill:#f9a78a;fill-opacity:1;fill-rule:nonzero;stroke:none"
            d="M 0,0 C -1.105,2.724 0.213,5.827 2.937,6.93 5.66,8.032 8.762,6.72 9.865,3.992 l 5.209,-12.868 c 1.106,-2.726 -0.207,-5.832 -2.934,-6.931 -2.724,-1.104 -5.826,0.209 -6.931,2.934 z" />
        </g>
        <g transform="translate(377.2837,543.9556)" id="g416">
          <path id="path418" style="fill:#f9a78a;fill-opacity:1;fill-rule:nonzero;stroke:none"
            d="m 0,0 c 2.934,-0.15 5.192,-2.652 5.044,-5.584 -0.149,-2.937 -2.648,-5.198 -5.586,-5.047 l -25.199,1.42 c -2.936,0.143 -5.196,2.647 -5.046,5.582 0.15,2.932 2.65,5.195 5.586,5.046 z" />
        </g>
        <g transform="translate(372.3374,556.8486)" id="g420">
          <path id="path422" style="fill:#f9a78a;fill-opacity:1;fill-rule:nonzero;stroke:none"
            d="m 0,0 c 2.924,-0.312 5.037,-2.936 4.725,-5.861 -0.312,-2.92 -2.936,-5.037 -5.862,-4.722 l -25.081,2.833 c -2.922,0.309 -5.037,2.936 -4.721,5.859 0.312,2.92 2.935,5.035 5.857,4.722 z" />
        </g>
        <g transform="translate(349.8584,565.5952)" id="g424">
          <path id="path426" style="fill:#f9a78a;fill-opacity:1;fill-rule:nonzero;stroke:none"
            d="m 0,0 c -2.73,1.088 -4.06,4.186 -2.965,6.916 1.092,2.729 4.187,4.055 6.916,2.965 L 27.333,0.383 c 2.735,-1.092 4.059,-4.189 2.968,-6.919 -1.088,-2.727 -4.188,-4.057 -6.92,-2.967 L 0,0" />
        </g>
        <g transform="translate(390.2334,569.3242)" id="g428">
          <path id="path430" style="fill:#f9a78a;fill-opacity:1;fill-rule:nonzero;stroke:none"
            d="m 0,0 c 2.29,-1.84 2.663,-5.187 0.823,-7.483 -1.839,-2.288 -5.189,-2.664 -7.482,-0.821 L -26.263,7.592 c -2.297,1.835 -2.663,5.185 -0.825,7.479 1.84,2.293 5.187,2.66 7.482,0.822 z" />
        </g>
        <g transform="translate(379.5,531.4624)" id="g432">
          <path id="path434" style="fill:#f9a78a;fill-opacity:1;fill-rule:nonzero;stroke:none"
            d="m 0,0 c -11.025,1.892 -18.432,12.365 -16.536,23.386 1.891,11.03 12.363,18.431 23.39,16.542 l 155.11,-26.595 c 11.028,-1.893 18.431,-12.365 16.539,-23.388 -1.893,-11.027 -12.365,-18.432 -23.394,-16.536 z" />
        </g>
        <g transform="translate(2103.4521,248.1084)" id="g448">
          <g id="g502">
            <g style="opacity:0.5" id="g500" clip-path="url(#clipPath494)">
              <g id="g498" transform="translate(1894.7227,802.8931)">
                <path id="path496" style="fill:#cecece;fill-opacity:1;fill-rule:nonzero;stroke:none"
                  d="M 0,0 C 0,15.699 -6.977,29.758 -17.986,39.278 H -1050.235 C -1061.246,29.758 -1068.223,15.699 -1068.223,0 V -152.115 L 35.811,-261.732 0,-25.934 Z" />
              </g>
            </g>
          </g>
        </g>
      </g>
    </g>
  </g>
</svg>